[gd_scene load_steps=4 format=2]

[ext_resource path="res://Enemy_Circle.gd" type="Script" id=1]
[ext_resource path="res://Enemy_Circ.png" type="Texture" id=2]

[sub_resource type="CircleShape2D" id=1]

custom_solver_bias = 0.0
radius = 10.0

[node name="Enemy_Circle" type="KinematicBody2D"]

input_pickable = false
collision_layer = 4
collision_mask = 1
collision/safe_margin = 0.08
script = ExtResource( 1 )
_sections_unfolded = [ "Collision", "Pickable", "Transform", "Visibility", "collision" ]

[node name="Circle_Sprite" type="Sprite" parent="." index="0"]

scale = Vector2( 0.25, 0.25 )
texture = ExtResource( 2 )
_sections_unfolded = [ "Material", "Transform", "Visibility" ]

[node name="CollisionShape2D" type="CollisionShape2D" parent="." index="1"]

scale = Vector2( 3, 3 )
shape = SubResource( 1 )
_sections_unfolded = [ "Material", "Transform", "Visibility", "Z Index" ]


