[gd_scene load_steps=4 format=2]

[ext_resource path="res://Laser.gd" type="Script" id=1]
[ext_resource path="res://spacepixels-0.1.0/pixel_laser_blue.png" type="Texture" id=2]

[sub_resource type="RectangleShape2D" id=1]

custom_solver_bias = 0.0
extents = Vector2( 5, 15 )

[node name="Laser_Inh" type="KinematicBody2D" index="0"]

show_behind_parent = true
input_pickable = false
collision_layer = 8
collision_mask = 32806
collision/safe_margin = 0.08
script = ExtResource( 1 )
_sections_unfolded = [ "Collision", "Pickable", "Transform", "Visibility" ]
velocity = Vector2( 1, 1 )

[node name="Sprite" type="Sprite" parent="." index="0"]

rotation = 1.5708
texture = ExtResource( 2 )
_sections_unfolded = [ "Offset", "Transform" ]

[node name="CollisionShape2D" type="CollisionShape2D" parent="." index="1"]

rotation = 1.5708
shape = SubResource( 1 )
_sections_unfolded = [ "Transform", "Visibility", "Z Index" ]


